{
  "project_info": {
    "project_number": "561863003678",
    "firebase_url": "https://bolesale-974a2.firebaseio.com",
    "project_id": "bolesale-974a2",
    "storage_bucket": "bolesale-974a2.appspot.com"
  },
  "client": [
    {
      "client_info": {
        "mobilesdk_app_id": "1:561863003678:android:90fa3f5b3f7df58189680f",
        "android_client_info": {
          "package_name": "com.example.bolesale"
        }
      },
      "oauth_client": [
        {
          "client_id": "561863003678-b9bgdu4mvpq6vgr4sccupfap82a967n4.apps.googleusercontent.com",
          "client_type": 1,
          "android_info": {
            "package_name": "com.example.bolesale",
            "certificate_hash": "cfc45c7f71e3fbeec9741fe5997f842f93ce75dd"
          }
        },
        {
          "client_id": "561863003678-0bkcuk3qa3lrok16rui8187um4nain5h.apps.googleusercontent.com",
          "client_type": 3
        }
      ],
      "api_key": [
        {
          "current_key": "AIzaSyC1bCHPyiD4pk6c89WvhCvTPTe4vyuE4ko"
        }
      ],
      "services": {
        "appinvite_service": {
          "other_platform_oauth_client": [
            {
              "client_id": "561863003678-0bkcuk3qa3lrok16rui8187um4nain5h.apps.googleusercontent.com",
              "client_type": 3
            }
          ]
        }
      }
    }
  ],
  "configuration_version": "1"
}